<?xml version="1.0" encoding="UTF-8"?>
<svg width="37px" height="36px" viewBox="0 0 37 36" version="1.1" xmlns="http://www.w3.org/2000/svg" xmlns:xlink="http://www.w3.org/1999/xlink">
    <!-- Generator: Sketch 53.2 (72643) - https://sketchapp.com -->
    <title>Group 22</title>
    <desc>Created with Sketch.</desc>
    <g id="🕹-COMPONENTS" stroke="none" stroke-width="1" fill="none" fill-rule="evenodd">
        <g id="HEADER/Mobile" transform="translate(-23.000000, -20.000000)">
            <g id="Group-22" transform="translate(23.000000, 20.000000)">
                <g id="Group" transform="translate(0.225262, 0.000038)">
                    <path d="M4.20259462,35.8408174 C4.03871852,35.8408174 3.87235189,35.8003484 3.71893596,35.7151898 C3.23826593,35.4485415 3.06542395,34.8437415 3.33290562,34.3645691 L5.86227604,29.8340312 C6.05230259,29.493645 6.42438603,29.2925415 6.81390309,29.3273002 C7.20342016,29.3588312 7.53839488,29.6145553 7.67039235,29.9812588 C7.71422547,30.0979484 8.8454189,32.9881277 12.5655061,32.7492864 C13.2733114,32.7045967 13.775649,32.4563208 14.1459891,31.9674657 C15.21741,30.5537829 14.8684884,27.5635484 14.6433456,26.5307208 C14.5267893,25.9951898 14.8674922,25.4661139 15.404448,25.349176 C15.9419018,25.2332312 16.4721332,25.5711346 16.5899347,26.1061691 C16.5998968,26.1525967 16.8389865,27.2524588 16.8706161,28.6318795 C16.9154454,30.5843208 16.5348942,32.1082381 15.7386755,33.161176 C15.0226515,34.1081002 13.9689132,34.6510795 12.6910283,34.7315208 C9.96789551,34.9013415 8.23997389,33.7987484 7.27016605,32.8423898 C7.08337718,32.6579208 6.9172596,32.4727071 6.77031902,32.2919622 L5.07402699,35.3303622 C4.89172105,35.656845 4.5522634,35.8408174 4.20259462,35.8408174" id="Fill-1" fill="#272343"></path>
                    <path d="M31.6957004,34.6377471 C31.6593389,34.6377471 31.6229773,34.6357608 31.5866157,34.6317884 C31.1726916,34.5863539 30.8309925,34.2896643 30.7293793,33.8874574 C28.9812845,26.9719815 24.1441998,25.6864091 24.0953856,25.6742436 C23.5619166,25.5406712 23.2376511,25.001416 23.371641,24.4693608 C23.5056309,23.9370574 24.0478167,23.6142988 24.5805386,23.7478712 C24.8039381,23.8037333 29.6151214,25.0793746 32.0184716,31.3595126 C32.74122,30.4436229 33.7832529,29.3670988 35.1356044,28.5783264 C35.6102972,28.3007539 36.2204741,28.4603953 36.498416,28.9336091 C36.7763578,29.4073195 36.6167156,30.0155953 36.1420228,30.2924229 C33.8452668,31.6321195 32.5977662,34.0664643 32.5853136,34.0910436 C32.4149621,34.4286988 32.0687801,34.6377471 31.6957004,34.6377471" id="Fill-3" fill="#272343"></path>
                    <path d="M28.114609,6.34010843 L24.7322361,6.9637774 L27.201336,3.06708774 L30.8033726,2.40294981 L28.114609,6.34010843 Z M16.4151501,25.1619015 L13.7888985,11.0022326 L27.9061527,8.3985636 L30.5346457,22.5584808 L16.4151501,25.1619015 Z M7.62760524,12.1385912 L8.4370237,11.9893774 L11.8298568,11.3634739 L14.4563575,25.524136 L10.2558492,26.2987567 L7.62760524,12.1385912 Z M6.99850031,6.79246705 L10.3696659,9.61288084 L7.44006921,10.1533774 L6.73923735,10.2827291 L3.29186188,7.4759705 L6.99850031,6.79246705 Z M33.8056925,0.45050843 C33.5860288,0.115336016 33.1853044,-0.0562226047 32.78981,0.0165222229 L26.4105964,1.19310153 C26.1376356,1.24350153 25.8980477,1.40512912 25.7496128,1.63925326 L22.0638947,7.45586015 L12.9087494,9.14413602 L7.91949399,4.96987395 C7.69186062,4.77944636 7.3905079,4.70148774 7.09787199,4.75412222 L0.8150414,5.9125774 C0.433493991,5.98308774 0.127409289,6.26786015 0.0312752809,6.64275671 C-0.0651077785,7.01740498 0.0653953821,7.41365326 0.366000945,7.65845326 L5.55375063,11.8816257 L8.47811725,27.6367153 C8.52618426,27.8959153 8.67561536,28.1253222 8.89328666,28.274536 C9.06064949,28.3892395 9.25764949,28.4493222 9.45763811,28.4493222 C9.51815771,28.4493222 9.57892636,28.4436119 9.6391969,28.4326877 L31.876537,24.3311705 C32.136298,24.2832533 32.3664219,24.1342877 32.5163511,23.9172946 C32.6657822,23.7003015 32.7230642,23.4329084 32.6752462,23.1739567 L29.7588492,7.4625636 L33.7947342,1.55210843 C34.0208733,1.22066015 34.0251071,0.786425671 33.8056925,0.45050843 L33.8056925,0.45050843 Z" id="Fill-5" fill="#F45D48"></path>
                </g>
            </g>
        </g>
    </g>
</svg>